ru1501,long,25.000, 25.000, 2, 1, 12375.000,12375.000, 09:06:00, 1, 1, 2014/09/25
ru1501,short,50.000, 75.000, 1, 1, 12285.000,12285.000, 09:13:00, 2, -1, 2014/09/25
ru1501,long,-20.000, 55.000, 2, 1, 12300.000,12300.000, 09:14:00, 3, 1, 2014/09/25
ru1501,long,-20.000, 35.000, 2, 1, 12255.000,12255.000, 09:16:00, 4, 1, 2014/09/25
ru1501,short,-20.000, 15.000, 1, 1, 12150.000,12150.000, 09:17:00, 5, -1, 2014/09/25
ru1501,long,-20.000, -5.000, 2, 1, 12200.000,12200.000, 09:18:00, 6, 1, 2014/09/25
ru1501,long,-20.000, -25.000, 2, 1, 12200.000,12200.000, 09:20:00, 7, 1, 2014/09/25
ru1501,short,0.000, -25.000, 1, 1, 12175.000,12175.000, 09:24:00, 8, -1, 2014/09/25
ru1501,long,-20.000, -45.000, 2, 1, 12165.000,12165.000, 09:25:00, 9, 1, 2014/09/25
ru1501,long,-20.000, -65.000, 2, 1, 12135.000,12135.000, 09:27:00, 10, 1, 2014/09/25
ru1501,short,55.000, -10.000, 1, 1, 12045.000,12045.000, 09:33:00, 11, -1, 2014/09/25
ru1501,long,20.000, 10.000, 2, 1, 12120.000,12120.000, 09:36:00, 12, 1, 2014/09/25
ru1501,long,35.000, 45.000, 2, 1, 12150.000,12150.000, 09:40:00, 13, 1, 2014/09/25
ru1501,short,20.000, 65.000, 1, 1, 12090.000,12090.000, 09:47:00, 14, -1, 2014/09/25
ru1501,long,-20.000, 45.000, 2, 1, 12085.000,12085.000, 09:50:00, 15, 1, 2014/09/25
ru1501,long,0.000, 45.000, 2, 1, 12090.000,12090.000, 09:58:00, 16, 1, 2014/09/25
ru1501,short,50.000, 95.000, 1, 1, 12015.000,12015.000, 10:06:00, 17, -1, 2014/09/25
ru1501,long,0.000, 95.000, 2, 1, 12035.000,12035.000, 10:08:00, 18, 1, 2014/09/25
ru1501,long,-20.000, 75.000, 2, 1, 12015.000,12015.000, 10:10:00, 19, 1, 2014/09/25
ru1501,short,-20.000, 55.000, 1, 1, 11995.000,11995.000, 10:12:00, 20, -1, 2014/09/25
ru1501,long,-20.000, 35.000, 2, 1, 12010.000,12010.000, 10:13:00, 21, 1, 2014/09/25
ru1501,long,-20.000, 15.000, 2, 1, 11970.000,11970.000, 10:30:00, 22, 1, 2014/09/25
ru1501,short,-20.000, -5.000, 1, 1, 11875.000,11875.000, 10:31:00, 23, -1, 2014/09/25
ru1501,long,-20.000, -25.000, 2, 1, 11895.000,11895.000, 10:32:00, 24, 1, 2014/09/25
ru1501,long,-20.000, -45.000, 2, 1, 11880.000,11880.000, 10:34:00, 25, 1, 2014/09/25
ru1501,short,-20.000, -65.000, 1, 1, 11805.000,11805.000, 10:35:00, 26, -1, 2014/09/25
ru1501,long,-5.000, -70.000, 2, 1, 11840.000,11840.000, 10:37:00, 27, 1, 2014/09/25
ru1501,long,-20.000, -90.000, 2, 1, 11855.000,11855.000, 10:39:00, 28, 1, 2014/09/25
ru1501,short,-20.000, -110.000, 1, 1, 11840.000,11840.000, 10:40:00, 29, -1, 2014/09/25
ru1501,long,-5.000, -115.000, 2, 1, 11860.000,11860.000, 10:42:00, 30, 1, 2014/09/25
ru1501,long,-5.000, -120.000, 2, 1, 11855.000,11855.000, 10:46:00, 31, 1, 2014/09/25
ru1501,short,-5.000, -125.000, 1, 1, 11845.000,11845.000, 10:51:00, 32, -1, 2014/09/25
ru1501,long,-20.000, -145.000, 2, 1, 11845.000,11845.000, 10:52:00, 33, 1, 2014/09/25
ru1501,long,-20.000, -165.000, 2, 1, 11830.000,11830.000, 10:57:00, 34, 1, 2014/09/25
ru1501,short,-15.000, -180.000, 1, 1, 11825.000,11825.000, 10:59:00, 35, -1, 2014/09/25
ru1501,short,-20.000, -20.000, 1, 1, 12065.000,12065.000, 09:28:00, 1, -1, 2014/09/26
ru1501,long,240.000, 220.000, 2, 1, 12460.000,12460.000, 10:32:00, 2, 1, 2014/09/26
ru1501,short,45.000, 45.000, 1, 1, 12255.000,12255.000, 14:02:00, 1, -1, 2014/09/30
